Manasseh
…
library(dplyr)
library(ggplot2)
library(vtree)

1.2 Generate data

rm(list = ls())
set.seed(123)
gender = sample(0:1, 100, replace = TRUE)
marital.status = sample(1:3, 100, replace = TRUE)
dem.data = data.frame(gender, marital.status)
as_tibble(dem.data)

## # A tibble: 100 x 2
##    gender marital.status
##     <int>          <int>
##  1      0              1
##  2      0              2
##  3      0              1
##  4      1              2
##  5      0              1
##  6      1              3
##  7      1              3
##  8      1              2
##  9      0              3
## 10      0              1
## # ... with 90 more rows
…
df = apply (df, 2, function(x) {x[sample( c(1:n), floor(n/5))] <- NA; x} )
df = as.data.frame(df)
class(df)

## [1] "data.frame"

str(df)

## 'data.frame':    50 obs. of  2 variables:
##  $ score : int  84 76 74 77 NA 99 66 64 53 NA ...
##  $ income: int  1805 4498 2463 NA 4787 2051 1471 4376 NA 2925 ...

as_tibble(df)

## # A tibble: 50 x 2
##    score income
##    <int>  <int>
##  1    84   1805
##  2    76   4498
##  3    74   2463
##  4    77     NA
##  5    NA   4787
##  6    99   2051
##  7    66   1471
##  8    64   4376
##  9    53     NA
## 10    NA   2925
## # ... with 40 more rows
…
##  score income 
##   69.0 2842.5

2.6 Replace NAs using mean

# Create a new variable with mean
df_replace_mean = df %>%
   mutate(replace_mean_score  = ifelse(is.na(score), average_missing[1], score),
   replace_mean_income = ifelse(is.na(income), average_missing[2], income))
tibble(df_replace_mean)

## # A tibble: 50 x 4
##    score income replace_mean_score replace_mean_income
##    <int>  <int>              <dbl>               <dbl>
##  1    84   1805               84                 1805 
##  2    76   4498               76                 4498 
##  3    74   2463               74                 2463 
##  4    77     NA               77                 2854.
##  5    NA   4787               69.6               4787 
##  6    99   2051               99                 2051 
##  7    66   1471               66                 1471 
##  8    64   4376               64                 4376 
##  9    53     NA               53                 2854.
## 10    NA   2925               69.6               2925 
## # ... with 40 more rows

sum(is.na(df_replace_mean))

## [1] 20

2.7 Replacing NAs using median

# Create a new variable with median
df_replace_median = df %>%
            mutate(replace_median_score  = ifelse(is.na(score), median_missing[1], score), 
            replace_median_income = ifelse(is.na(income), median_missing[2], income))
tibble(df_replace_median)

## # A tibble: 50 x 4
##    score income replace_median_score replace_median_income
##    <int>  <int>                <dbl>                 <dbl>
##  1    84   1805                   84                 1805 
##  2    76   4498                   76                 4498 
##  3    74   2463                   74                 2463 
##  4    77     NA                   77                 2842.
##  5    NA   4787                   69                 4787 
##  6    99   2051                   99                 2051 
##  7    66   1471                   66                 1471 
##  8    64   4376                   64                 4376 
##  9    53     NA                   53                 2842.
## 10    NA   2925                   69                 2925 
## # ... with 40 more rows
…
## [1] 20

2.8 direct NA impute using mean

# Quick code to replace missing values with the mean
df_impute_mean = data.frame(
    sapply(
        df,
        function(x) ifelse(is.na(x),
            mean(x, na.rm = TRUE),
            x)))
tibble(df_impute_mean)

## # A tibble: 50 x 2
##    score income
##    <dbl>  <dbl>
##  1  84    1805 
##  2  76    4498 
##  3  74    2463 
##  4  77    2854.
##  5  69.6  4787 
##  6  99    2051 
##  7  66    1471 
##  8  64    4376 
##  9  53    2854.
## 10  69.6  2925 
## # ... with 40 more rows
…
## [1] 0

2.9 direct NA impute using median

# Quick code to replace missing values with the median
df_impute_median = data.frame(
    sapply(
        df,
        function(x) ifelse(is.na(x),
            median(x, na.rm = TRUE),
            x)))
tibble(df_impute_median)

## # A tibble: 50 x 2
##    score income
##    <dbl>  <dbl>
##  1    84  1805 
##  2    76  4498 
##  3    74  2463 
##  4    77  2842.
##  5    69  4787 
##  6    99  2051 
##  7    66  1471 
##  8    64  4376 
##  9    53  2842.
## 10    69  2925 
## # ... with 40 more rows

sum(is.na(df_impute_median))

## [1] 0

2.10 direct NA impute using mean for numeric attributes

# Replace missing values in the numeric attributes using mean
df[sapply(df, is.numeric)] = lapply(df[sapply(df, is.numeric)], 
                                      function(x)
                                        ifelse(is.na(x), 
                                               mean(x, na.rm = TRUE), x))
tibble(df)

## # A tibble: 50 x 2
##    score income
##    <dbl>  <dbl>
##  1  84    1805 
##  2  76    4498 
##  3  74    2463 
##  4  77    2854.
##  5  69.6  4787 
##  6  99    2051 
##  7  66    1471 
##  8  64    4376 
##  9  53    2854.
## 10  69.6  2925 
## # ... with 40 more rows
…
